Spatial Annotation Screening
…
Fig.1 Recreate the screening set up.

Slot @significance contains a
data.frame with one row for each screened variable which provides
information regarding the degree of randomness the inferred pattern
contains as quantified by the total variation (tot_var). The
p-value gives the probability to obtain such a total variation under
complete randomness and indicates the degree of significance. Column
fdr contains the adjusted p-value according to the False
Discovery Rate.

filter(sas_out@significance, p_value < 0.05)  

## # A tibble: 547 x 6
##    variables  rel_var tot_var p_value norm_var     fdr
##    <chr>        <dbl>   <dbl>   <dbl>    <dbl>   <dbl>
##  1 A2M          0.112    2.40  0.0129   0.120  0.0708 
##  2 AC245595.1   1        2.33  0.0083   0.117  0.0509 
##  3 ACTA2        0.515    2.15  0.0036   0.108  0.0308 
##  4 ACTB         0.882    1.74  0        0.0868 0      
##  5 ACTG1       -0.563    1.80  0.0002   0.0899 0.00379
##  6 ADAM12       0.358    2.46  0.0157   0.123  0.0753 
##  7 ADD1        -0.491    2.40  0.0129   0.120  0.0708 
##  8 ADM         -0.959    1.74  0        0.0871 0      
##  9 ADRM1        0.914    2.68  0.0338   0.134  0.120  
## 10 AKR1B1       1        2.28  0.0065   0.114  0.0437 
## # i 537 more rows

Slot @results contains the model
fitting results. It is a data.frame where each row corresponds to a
variable ~ model pair. The columns mae (mean absolute error)
and rmse (root mean squared error) indicate the quality of the
fit. The lower the value the better.

filter(sas_out@results, rmse < 0.2)

## # A tibble: 292 x 5
##    variables models                corr    mae   rmse
##    <chr>     <chr>                <dbl>  <dbl>  <dbl>
##  1 ACTA2     immediate_ascending  0.892 0.0681 0.124 
##  2 ACTB      immediate_ascending  0.953 0.0688 0.0892
##  3 ADM       immediate_descending 0.962 0.0652 0.0843
##  4 AKR1B1    late_ascending       0.849 0.138  0.166 
##  5 ANAPC11   immediate_ascending  0.939 0.156  0.180 
##  6 ANAPC11   linear_ascending     0.935 0.0967 0.120 
##  7 ANGPTL4   immediate_descending 0.941 0.134  0.161 
##  8 ANGPTL4   linear_descending    0.861 0.137  0.171 
##  9 APOC1     late_ascending       0.937 0.136  0.163 
## 10 APOC1     linear_ascending     0.950 0.0983 0.126 
## # i 282 more rows
…
