Adding Data to SPATA2 objects • SPATA2
…
# add rownames as 'barcodes' variable 
seurat_meta_df <- 
  tibble::rownames_to_column(seurat_obj@meta.data, var = "barcodes") %>% 
  tibble::as_tibble()

# show meta df
seurat_meta_df

## # A tibble: 3,217 × 6
##    barcodes   orig.ident nCount_RNA nFeature_RNA RNA_snn_res.0.8 seurat_clusters
##    <chr>      <fct>           <dbl>        <int> <fct>           <fct>          
##  1 AAACAAGTA… SeuratPro…       1614          842 0               0              
##  2 AAACACCAA… SeuratPro…      10498         3211 10              10             
##  3 AAACAGAGC… SeuratPro…       1258          739 1               1              
##  4 AAACATTTC… SeuratPro…       2387         1226 0               0              
##  5 AAACCCGAA… SeuratPro…       3070         1373 0               0              
##  6 AAACCGGGT… SeuratPro…      14562         3579 5               5              
##  7 AAACCGTTC… SeuratPro…       8014         2610 3               3              
##  8 AAACCTAAG… SeuratPro…       4476         1945 9               9              
##  9 AAACCTCAT… SeuratPro…       9823         2818 5               5              
## 10 AAACGAGAC… SeuratPro…        584          415 1               1              
## # ℹ 3,207 more rows
…
