Image Annotation Screening - Code & Concept • SPATA2
…
## # A tibble: 3,517 x 3
##    barcodes               x     y
##    <chr>              <dbl> <dbl>
##  1 AAACAAGTATCTCCCA-1 1456. 1241.
##  2 AAACAATCTACTAGCA-1  781.  309.
##  3 AAACACCAATAACTGC-1  509. 1421.
##  4 AAACAGAGCGACTCCT-1 1364.  527.
##  5 AAACAGCTTTCAGAAG-1  394. 1104.
##  6 AAACAGGGTCTATATT-1  440. 1183.
##  7 AAACATGGTGAGAGGA-1  292. 1481.
##  8 AAACCCGAACGAAATC-1 1604. 1142.
##  9 AAACCGGGTAGGTACC-1  611. 1084.
## 10 AAACCGTTCGTCCAGG-1  771. 1282.
## # i 3,507 more rows
…
## # A tibble: 286 x 4
##    ids             border     x     y
##    <fct>           <chr>  <dbl> <dbl>
##  1 necrotic_center outer   512. 1378.
##  2 necrotic_center outer   512. 1363.
##  3 necrotic_center outer   510. 1354.
##  4 necrotic_center outer   505. 1350.
##  5 necrotic_center outer   505. 1347.
##  6 necrotic_center outer   500. 1341.
##  7 necrotic_center outer   498. 1334.
##  8 necrotic_center outer   498. 1330.
##  9 necrotic_center outer   498. 1323.
## 10 necrotic_center outer   500. 1312.
## # i 276 more rows
…
binned_coords <-
  bin_by_expansion(
    coords_df = coords_df, # the coordinates of the barcode spots
    area_df = area_df, # the polygon that encircles the area of interest
    binwidth = bcsp_dist,
    n_bins_circle = n_bins # n_bins = 30
  )

# show results
binned_coords

## # A tibble: 3,517 x 6
##    barcodes               x     y bins_circle border bins_order
##    <chr>              <dbl> <dbl> <fct>       <chr>       <dbl>
##  1 AAACAGGGTCTATATT-1  440. 1183. Core        outer           0
##  2 AAACCGGGTAGGTACC-1  611. 1084. Core        outer           0
##  3 AAACCGTTCGTCCAGG-1  771. 1282. Core        outer           0
##  4 AAACCTCATGAAGTTG-1  508.  985. Core        outer           0
##  5 AAACTTGCAAACGTAT-1  509. 1143. Core        outer           0
##  6 AAAGGCTACGGACCAT-1  908. 1480. Core        outer           0
##  7 AAAGGCTCTCGCGCCG-1  920. 1341. Core        outer           0
##  8 AAAGGGCAGCTTGAAT-1  588.  727. Core        outer           0
##  9 AAAGTAGCATTGCTCA-1  600. 1262. Core        outer           0
## 10 AAATCGTGTACCACAA-1  931. 1123. Core        outer           0
## # i 3,507 more rows
…
# example genes
genes_of_interest <- c("FN1", "MYL6", "MCTS1")

joined_df <- 
  joinWithGenes(
    object = object_t313, 
    spata_df = binned_coords, 
    genes = genes_of_interest
  ) %>% 
  select(-x, -y) # not needed any longer

# show results 
joined_df

## # A tibble: 3,517 x 7
##    barcodes           bins_circle border bins_order   FN1  MYL6 MCTS1
##    <chr>              <fct>       <chr>       <dbl> <dbl> <dbl> <dbl>
##  1 AAACAGGGTCTATATT-1 Core        outer           0 0.811 0         0
##  2 AAACCGGGTAGGTACC-1 Core        outer           0 0     0         0
##  3 AAACCGTTCGTCCAGG-1 Core        outer           0 0.716 0         0
##  4 AAACCTCATGAAGTTG-1 Core        outer           0 0.570 0         0
##  5 AAACTTGCAAACGTAT-1 Core        outer           0 0.447 0.694     0
##  6 AAAGGCTACGGACCAT-1 Core        outer           0 0.813 0.257     0
##  7 AAAGGCTCTCGCGCCG-1 Core        outer           0 0.646 0.195     0
##  8 AAAGGGCAGCTTGAAT-1 Core        outer           0 0.531 0.366     0
##  9 AAAGTAGCATTGCTCA-1 Core        outer           0 0.441 0         0
## 10 AAATCGTGTACCACAA-1 Core        outer           0 0.648 0         0
## # i 3,507 more rows
…
# show results 
smrd_df

## # A tibble: 34 x 4
##    bins_numeric   FN1  MYL6 MCTS1
##           <dbl> <dbl> <dbl> <dbl>
##  1            0 0.610 0     0.304
##  2            1 0.961 0.151 0.283
##  3            2 1     0.241 0.342
##  4            3 0.970 0.222 0.763
##  5            4 0.944 0.308 0.507
##  6            5 0.982 0.280 0.563
##  7            6 0.920 0.324 0.523
##  8            7 0.871 0.327 0.840
##  9            8 0.855 0.371 0.745
## 10            9 0.843 0.396 0.643
## # i 24 more rows
…
