Model Fitting in Spatial Transcriptomics - Code & Concept • SPATA2
…
    object = object_t313, # using object from previous tutorial
    id = "necrotic_center", 
    distance = "2.25mm", 
    binwidth = "112.5um",
    variables = "FN1", 
    summarize_by = c("bins_circle", "bins_angle")
  ) %>% 
  select(
    bins_order, # numeric variable indicating the order of the bins / direction
    bins_circle, # the actual names of the bins
    FN1 # the gene expression along the direction
  ) %>% 
  filter(bins_circle != "Core")

## # A tibble: 50 x 3
##    trajectory_order proj_length_binned  EGFR
##               <int> <fct>              <dbl>
##  1                1 (-0.888,25.1]      0.900
##  2                2 (25.1,49.9]        0.978
##  3                3 (49.9,74.7]        0.948
##  4                4 (74.7,99.5]        0.940
##  5                5 (99.5,124]         0.977
##  6                6 (124,149]          0.973
##  7                7 (149,174]          0.971
##  8                8 (174,199]          0.980
##  9                9 (199,223]          0.939
## 10               10 (223,248]          0.971
## # i 40 more rows

## # A tibble: 21 x 3
##    bins_order bins_circle   FN1
##         <dbl> <fct>       <dbl>
##  1          1 Circle 1    0.931
##  2          2 Circle 2    1    
##  3          3 Circle 3    0.929
##  4          4 Circle 4    0.915
##  5          5 Circle 5    0.886
##  6          6 Circle 6    0.812
##  7          7 Circle 7    0.769
##  8          8 Circle 8    0.723
##  9          9 Circle 9    0.651
## 10         10 Circle 10   0.592
## # i 11 more rows
…
# create data.frame with model variables
model_df <- 
  create_model_df(
    input = 1:n_bins, # = 50
    var_order = "trajectory_order",
    model_subset = c("peak", "ascending", "descending"), # only use models that contain these catchphrases
    model_remove = c("rev", "immediate", "two") # remove models that contain these catchphrases
    )

# show results 
model_df

## # A tibble: 50 x 11
##    trajectory_order one_peak sharp_peak early_peak late_peak late_ascending
##               <int>    <dbl>      <dbl>      <dbl>     <dbl>          <dbl>
##  1                1  0                0     0              0        0      
##  2                2  0.00411          0     0.0170         0        0.00516
##  3                3  0.0164           0     0.0670         0        0.0104 
##  4                4  0.0366           0     0.146          0        0.0158 
##  5                5  0.0644           0     0.250          0        0.0213 
##  6                6  0.0994           0     0.371          0        0.0269 
##  7                7  0.141            0     0.5            0        0.0327 
##  8                8  0.188            0     0.629          0        0.0386 
##  9                9  0.241            0     0.75           0        0.0446 
## 10               10  0.298            0     0.854          0        0.0507 
## # i 40 more rows
## # i 5 more variables: linear_ascending <dbl>, abrupt_ascending <dbl>,
## #   late_descending <dbl>, linear_descending <dbl>, abrupt_descending <dbl>
…
traj_df_wide <- 
  getStsDf(
    object = object_t269,
    id = "horizontal_mid",
    variables = c("EGFR", "MAG"), 
    n_bins = n_bins, # = 100 
    format = "wide"
  )

# show results
traj_df_wide

## # A tibble: 50 x 6
##    trajectory_part proj_length_binned trajectory_order trajectory_part_order
##    <chr>           <fct>                         <int>                 <int>
##  1 Part 1          (-0.888,25.1]                     1                     1
##  2 Part 1          (25.1,49.9]                       2                     2
##  3 Part 1          (49.9,74.7]                       3                     3
##  4 Part 1          (74.7,99.5]                       4                     4
##  5 Part 1          (99.5,124]                        5                     5
##  6 Part 1          (124,149]                         6                     6
##  7 Part 1          (149,174]                         7                     7
##  8 Part 1          (174,199]                         8                     8
##  9 Part 1          (199,223]                         9                     9
## 10 Part 1          (223,248]                        10                    10
## # i 40 more rows
## # i 2 more variables: EGFR <dbl>, MAG <dbl>
…
traj_df_example <- 
  getStsDf(
    object = object_t269, 
    id = "horizontal_mid",
    variables = genes_of_interest, 
    n_bins = n_bins,
    format = "wide"
  )

# show results
traj_df_example

## # A tibble: 50 x 8
##    trajectory_part proj_length_binned trajectory_order trajectory_part_order
##    <chr>           <fct>                         <int>                 <int>
##  1 Part 1          (-0.888,25.1]                     1                     1
##  2 Part 1          (25.1,49.9]                       2                     2
##  3 Part 1          (49.9,74.7]                       3                     3
##  4 Part 1          (74.7,99.5]                       4                     4
##  5 Part 1          (99.5,124]                        5                     5
##  6 Part 1          (124,149]                         6                     6
##  7 Part 1          (149,174]                         7                     7
##  8 Part 1          (174,199]                         8                     8
##  9 Part 1          (199,223]                         9                     9
## 10 Part 1          (223,248]                        10                    10
## # i 40 more rows
## # i 4 more variables: EGFR <dbl>, MAG <dbl>, SNAP25 <dbl>, BCL9 <dbl>
…
One option to evaluate a model fit is using pearson correlation.

# combine gene and model variables to a new data.frame
combined_df <- 
  cbind(
    traj_df_example[,c("proj_length_binned", "trajectory_order",genes_of_interest)],
    model_df[,c("abrupt_descending", "abrupt_ascending", "sharp_peak")]
    ) %>% 
  as_tibble()

# show results 
combined_df

## # A tibble: 50 x 9
##    proj_length_binned trajectory_order  EGFR    MAG  SNAP25   BCL9
##    <fct>                         <int> <dbl>  <dbl>   <dbl>  <dbl>
##  1 (-0.888,25.1]                     1 0.900 0      0.0140  0.183 
##  2 (25.1,49.9]                       2 0.978 0.0245 0.00475 0.0931
##  3 (49.9,74.7]                       3 0.948 0.0177 0.00432 0.509 
##  4 (74.7,99.5]                       4 0.940 0      0.00448 0.528 
##  5 (99.5,124]                        5 0.977 0      0.00440 0.605 
##  6 (124,149]                         6 0.973 0.0353 0.00914 0.448 
##  7 (149,174]                         7 0.971 0.0340 0       0.173 
##  8 (174,199]                         8 0.980 0.0231 0       0.352 
##  9 (199,223]                         9 0.939 0.0227 0.00440 0.691 
## 10 (223,248]                        10 0.971 0.0347 0.00448 0.880 
## # i 40 more rows
## # i 3 more variables: abrupt_descending <dbl>, abrupt_ascending <dbl>,
## #   sharp_peak <dbl>
…
# show results
shifted_df

## # A tibble: 600 x 6
##    proj_length_binned trajectory_order models     model_values genes gene_values
##    <fct>                         <int> <chr>             <dbl> <chr>       <dbl>
##  1 (-0.888,25.1]                     1 abrupt_as~            0 EGFR       0.900 
##  2 (-0.888,25.1]                     1 abrupt_as~            0 MAG        0     
##  3 (-0.888,25.1]                     1 abrupt_as~            0 SNAP~      0.0140
##  4 (-0.888,25.1]                     1 abrupt_as~            0 BCL9       0.183 
##  5 (-0.888,25.1]                     1 abrupt_de~            1 EGFR       0.900 
##  6 (-0.888,25.1]                     1 abrupt_de~            1 MAG        0     
##  7 (-0.888,25.1]                     1 abrupt_de~            1 SNAP~      0.0140
##  8 (-0.888,25.1]                     1 abrupt_de~            1 BCL9       0.183 
##  9 (-0.888,25.1]                     1 sharp_peak            0 EGFR       0.900 
## 10 (-0.888,25.1]                     1 sharp_peak            0 MAG        0     
## # i 590 more rows
…
# join both data.frames
# note that both data.frames contain the same number of rows
# as arguments `input` (create_model_df()) and `n_bins` (getStsDf())
# were specified with value 50
joined_df <- 
  left_join(
    x = traj_df_example[, c("proj_length_binned", "trajectory_order", "MAG")],
    y = model_df[, c("trajectory_order", "sharp_peak", "abrupt_descending")], 
    by = "trajectory_order"
  )

# show results
joined_df

## # A tibble: 50 x 5
##    proj_length_binned trajectory_order    MAG sharp_peak abrupt_descending
##    <fct>                         <int>  <dbl>      <dbl>             <dbl>
##  1 (-0.888,25.1]                     1 0               0                 1
##  2 (25.1,49.9]                       2 0.0245          0                 1
##  3 (49.9,74.7]                       3 0.0177          0                 1
##  4 (74.7,99.5]                       4 0               0                 1
##  5 (99.5,124]                        5 0               0                 1
##  6 (124,149]                         6 0.0353          0                 1
##  7 (149,174]                         7 0.0340          0                 1
##  8 (174,199]                         8 0.0231          0                 1
##  9 (199,223]                         9 0.0227          0                 1
## 10 (223,248]                        10 0.0347          0                 1
## # i 40 more rows

# compute residuals
residuals_df <- 
  mutate(
    .data = joined_df,
    # use base::abs() to ensure positive values
    sharp_peak_res = abs(x = (sharp_peak - MAG)),
    abrupt_descending_res = abs(x = (abrupt_descending - MAG))
  )

# show results
residuals_df

## # A tibble: 50 x 7
##    proj_length_binned trajectory_order    MAG sharp_peak abrupt_descending
##    <fct>                         <int>  <dbl>      <dbl>             <dbl>
##  1 (-0.888,25.1]                     1 0               0                 1
##  2 (25.1,49.9]                       2 0.0245          0                 1
##  3 (49.9,74.7]                       3 0.0177          0                 1
##  4 (74.7,99.5]                       4 0               0                 1
##  5 (99.5,124]                        5 0               0                 1
##  6 (124,149]                         6 0.0353          0                 1
##  7 (149,174]                         7 0.0340          0                 1
##  8 (174,199]                         8 0.0231          0                 1
##  9 (199,223]                         9 0.0227          0                 1
## 10 (223,248]                        10 0.0347          0                 1
## # i 40 more rows
## # i 2 more variables: sharp_peak_res <dbl>, abrupt_descending_res <dbl>
…
