Spatial measures - Code & Concept • SPATA2
…
# keep only spot pairs with the lowest distance to bc_origin
# -> the neighbours
bcsp_dist_neighbors <- 
  dplyr::group_by(bcsp_dist, bc_origin) %>%
  dplyr::filter(dist_round == base::min(dist_round)) %>%
  dplyr::mutate(n_neighbors = n()) %>% 
  dplyr::ungroup() %>% 
  dplyr::arrange(bc_origin) %>% 
  dplyr::select(starts_with("bc"), starts_with("distance"), everything())

# if the spot does not lie exactly at the border, a spot has 6 neighbors
bcsp_dist_neighbors

## # A tibble: 20,618 x 9
##    bc_origin          bc_destination distance    xo    yo    xd    yd dist_round
##    <chr>              <chr>             <dbl> <dbl> <dbl> <dbl> <dbl>      <dbl>
##  1 AAACAAGTATCTCCCA-1 ACTAGTTGCGATC~     5.71  364. 310.   370. 310.           6
##  2 AAACAAGTATCTCCCA-1 AGAGGCTTCGGAA~     5.72  364. 310.   361. 315.           6
##  3 AAACAAGTATCTCCCA-1 CAGCAGTCCAGAC~     5.71  364. 310.   358. 310.           6
##  4 AAACAAGTATCTCCCA-1 GCATCGGCCGTGT~     5.75  364. 310.   367. 305.           6
##  5 AAACAAGTATCTCCCA-1 GGCAGCAAACCTA~     5.72  364. 310.   367. 315.           6
##  6 AAACAAGTATCTCCCA-1 TTCTTATCCGCTG~     5.72  364. 310.   361. 305.           6
##  7 AAACAATCTACTAGCA-1 ATAAACCATTGGA~     5.71  195.  77.3  201.  77.3          6
##  8 AAACAATCTACTAGCA-1 CGCTACCGCCCTA~     5.72  195.  77.3  192.  72.4          6
##  9 AAACAATCTACTAGCA-1 CTAAACGGGTGTA~     5.72  195.  77.3  192.  82.3          6
## 10 AAACAATCTACTAGCA-1 GCGCGATGGGTCA~     5.71  195.  77.3  198.  72.4          6
## # i 20,608 more rows
## # i 1 more variable: n_neighbors <int>
…
