Spatial segmentation vs. Image annotations • SPATA2
…
In transcriptomic studies grouping variables are usually created by
clustering. Spatial segmentation is used to create grouping variables
that group the barcode-spots based on the area in which they are
located.

# extract all grouping variables of the object
feature_df <- 
  getFeatureDf(object = object_t269) %>% 
  select(barcodes, where(is.factor))

# show results
feature_df

## # A tibble: 3,213 x 2
##    barcodes           seurat_clusters
##    <chr>              <fct>          
##  1 AAACAAGTATCTCCCA-1 2              
##  2 AAACACCAATAACTGC-1 0              
##  3 AAACAGAGCGACTCCT-1 5              
##  4 AAACATTTCCCGGATT-1 5              
##  5 AAACCCGAACGAAATC-1 2              
##  6 AAACCGGGTAGGTACC-1 7              
##  7 AAACCGTTCGTCCAGG-1 0              
##  8 AAACCTAAGCAGCCGG-1 1              
##  9 AAACCTCATGAAGTTG-1 7              
## 10 AAACGAGACGGTTGAT-1 1              
## # i 3,203 more rows
…
# load example list
data("spatial_segmentations")

segmentation_df <- spatial_segmentations[["269_T"]]

# show results
segmentation_df

## # A tibble: 3,213 x 2
##    barcodes           histology  
##    <chr>              <fct>      
##  1 AAACAAGTATCTCCCA-1 infiltrated
##  2 AAACACCAATAACTGC-1 tumor      
##  3 AAACAGAGCGACTCCT-1 infiltrated
##  4 AAACATTTCCCGGATT-1 infiltrated
##  5 AAACCCGAACGAAATC-1 infiltrated
##  6 AAACCGGGTAGGTACC-1 tumor      
##  7 AAACCGTTCGTCCAGG-1 tumor      
##  8 AAACCTAAGCAGCCGG-1 infiltrated
##  9 AAACCTCATGAAGTTG-1 tumor      
## 10 AAACGAGACGGTTGAT-1 infiltrated
## # i 3,203 more rows

Variables created with spatial segmentation are grouping variables
and can be used like any other grouping variable.

# add example segmentation variable to features
object_t269 <- 
  addFeatures(
    object = object_t269,
    feature_df = segmentation_df
  )

# show results
getFeatureDf(object_t269)

## # A tibble: 3,213 x 6
##    barcodes     sample nCount_Spatial nFeature_Spatial seurat_clusters histology
##    <chr>        <chr>           <dbl>            <int> <fct>           <fct>    
##  1 AAACAAGTATC~ 269_T            2984             1760 2               infiltra~
##  2 AAACACCAATA~ 269_T           14812             5452 0               tumor    
##  3 AAACAGAGCGA~ 269_T            2393             1516 5               infiltra~
##  4 AAACATTTCCC~ 269_T            4870             2575 5               infiltra~
##  5 AAACCCGAACG~ 269_T            5731             2781 2               infiltra~
##  6 AAACCGGGTAG~ 269_T           19525             6066 7               tumor    
##  7 AAACCGTTCGT~ 269_T           11463             4523 0               tumor    
##  8 AAACCTAAGCA~ 269_T            9221             3966 1               infiltra~
##  9 AAACCTCATGA~ 269_T           12689             4782 7               tumor    
## 10 AAACGAGACGG~ 269_T            1168              889 1               infiltra~
## # i 3,203 more rows
…
The binary segmentation/grouping variable is stored in the feature
data as any other grouping variable.

getFeatureDf(object = object_t313) %>% 
  select(barcodes, histology_ia)

## # A tibble: 3,517 x 2
##    barcodes           histology_ia
##    <chr>              <fct>       
##  1 AAACAAGTATCTCCCA-1 vivid       
##  2 AAACAATCTACTAGCA-1 vivid       
##  3 AAACACCAATAACTGC-1 vivid       
##  4 AAACAGAGCGACTCCT-1 vivid       
##  5 AAACAGCTTTCAGAAG-1 vivid       
##  6 AAACAGGGTCTATATT-1 necrotic    
##  7 AAACATGGTGAGAGGA-1 vivid       
##  8 AAACCCGAACGAAATC-1 vivid       
##  9 AAACCGGGTAGGTACC-1 necrotic    
## 10 AAACCGTTCGTCCAGG-1 necrotic    
## # i 3,507 more rows
…
