Clustering • SPATA2
…
cluster_df <- 
  as.data.frame(kmeans_res[["cluster"]]) %>% 
  tibble::rownames_to_column(var = "barcodes") %>% 
  magrittr::set_colnames(value = c("barcodes", "kmeans_4_HW")) %>% 
  tibble::as_tibble()

cluster_df[["kmeans_4_HW"]] <- as.factor(cluster_df[["kmeans_4_HW"]])

cluster_df

## # A tibble: 3,517 × 2
##    barcodes           kmeans_4_HW
##    <chr>              <fct>      
##  1 AAACAAGTATCTCCCA-1 3          
##  2 AAACAATCTACTAGCA-1 5          
##  3 AAACACCAATAACTGC-1 6          
##  4 AAACAGAGCGACTCCT-1 3          
##  5 AAACAGCTTTCAGAAG-1 1          
##  6 AAACAGGGTCTATATT-1 6          
##  7 AAACATGGTGAGAGGA-1 4          
##  8 AAACCCGAACGAAATC-1 2          
##  9 AAACCGGGTAGGTACC-1 6          
## 10 AAACCGTTCGTCCAGG-1 1          
## # ℹ 3,507 more rows
…
