Individual Resolution in VisiumHD Data • SPATA2
…
4. Merging back to higher resolution

Once analysis was conducted on a lower resolution, the results can be
transferred back to the high resolution object using the barcodes of the
reduction process as keys. Use the function
unwindAggregation().

# example
reconstr_df <- unwindAggregation(object_32um, var_names = "square_count")

reconstr_df

## # A tibble: 176,400 × 3
##    barcodes              barcodes_aggr square_count
##    <chr>                 <chr>                <int>
##  1 s_016um_00000_00000-1 c0r0                    NA
##  2 s_016um_00000_00001-1 c0r0                    NA
##  3 s_016um_00001_00000-1 c0r0                    NA
##  4 s_016um_00001_00001-1 c0r0                    NA
##  5 s_016um_00002_00000-1 c0r1                    NA
##  6 s_016um_00002_00001-1 c0r1                    NA
##  7 s_016um_00003_00000-1 c0r1                    NA
##  8 s_016um_00003_00001-1 c0r1                    NA
##  9 s_016um_00020_00000-1 c0r10                   NA
## 10 s_016um_00020_00001-1 c0r10                   NA
## # ℹ 176,390 more rows
…
