Initiation of individual SPATA2 objects • SPATA2
…
# show coords data.frame structure
coords_df

## # A tibble: 3,733 × 3
##    barcodes           x_orig y_orig
##    <chr>               <dbl>  <dbl>
##  1 AAACAAGTATCTCCCA-1   435.  226. 
##  2 AAACACCAATAACTGC-1   132.  171. 
##  3 AAACAGAGCGACTCCT-1   407.  455. 
##  4 AAACAGCTTTCAGAAG-1    96   273  
##  5 AAACAGGGTCTATATT-1   110.  247. 
##  6 AAACAGTGTTCCTGGG-1   219.   81.8
##  7 AAACATTTCCCGGATT-1   416.  157. 
##  8 AAACCGGGTAGGTACC-1   165.  279. 
##  9 AAACCGTTCGTCCAGG-1   216.  215. 
## 10 AAACCTAAGCAGCCGG-1   365.  132. 
## # ℹ 3,723 more rows
…
