Initiation & Preprocessing: MERFISH • SPATA2
…
# identify outliers based on the results of identifyTissueOutline()
object <- identifySpatialOutliers(object)

## 01:08:10 Identifying spatial outliers.

## 01:08:10 Spatial outliers: 95

# show the column
getCoordsDf(object, variables = "sp_outlier") %>% 
  dplyr::filter(sp_outlier == TRUE) %>% 
  dplyr::select(barcodes, sample, sp_outlier, everything())

## # A tibble: 95 × 13
##    barcodes sample sp_outlier     x     y x_orig y_orig   fov volume min_x max_x
##    <chr>    <chr>  <lgl>      <dbl> <dbl>  <dbl>  <dbl> <dbl>  <dbl> <dbl> <dbl>
##  1 cell_16… Slice… TRUE       1407. 6327.  1407.  6327.    98  1017. 1139. 1165.
##  2 cell_28… Slice… TRUE        727. 1085.   727.  1085.   124  1460. 1010. 1038.
##  3 cell_33… Slice… TRUE       4002.  499.  4002.   499.   648   297. 4335. 4349.
##  4 cell_33… Slice… TRUE       4033.  508.  4033.   508.   648   749. 4364. 4381.
##  5 cell_33… Slice… TRUE       4009.  533.  4009.   533.   648  1717. 4336. 4355.
##  6 cell_33… Slice… TRUE       4035.  435.  4035.   435.   649  1650. 4375. 4389.
##  7 cell_33… Slice… TRUE       4025.  481.  4025.   481.   649   439. 4362. 4372.
##  8 cell_33… Slice… TRUE       3982.  451.  3982.   451.   649   180. 4322. 4332.
##  9 cell_33… Slice… TRUE       4001.  459.  4001.   459.   649   720. 4340. 4351.
## 10 cell_33… Slice… TRUE       4006.  427.  4006.   427.   649   503. 4350. 4357.
## # ℹ 85 more rows
## # ℹ 2 more variables: min_y <dbl>, max_y <dbl>
…
That’s it. The object can be used for any downstream analyses such as
dimensional reduction, clustering, spatial annotation
screening or spatial
trajectory screening. Refer to tab Tutorials for more links.
Furthermore, you can skim our curated data base of spatial data sets for
those of platform MERFISH using SPATAData.

# load package
library(SPATAData)

# filter for samples from platform VisiumHD
sourceDataFrame(platform == "MERFISH")

## # A tibble: 32 × 20
##    sample_name    donor_species institution lm_source           organ organ_part
##    <chr>          <chr>         <chr>       <dttm>              <chr> <chr>     
##  1 HumanBreastCa… Homo sapiens  Vizgen      2024-08-24 01:57:29 Brea… NA        
##  2 HumanColonCan… Homo sapiens  Vizgen      2024-08-24 01:57:29 Colon NA        
##  3 HumanColonCan… Homo sapiens  Vizgen      2024-08-24 01:57:29 Colon NA        
##  4 HumanLiverCan… Homo sapiens  Vizgen      2024-08-24 01:57:29 Liver NA        
##  5 HumanLiverCan… Homo sapiens  Vizgen      2024-08-24 01:57:29 Liver NA        
##  6 HumanLungCanc… Homo sapiens  Vizgen      2024-08-24 01:57:29 Lung  NA        
##  7 HumanLungCanc… Homo sapiens  Vizgen      2024-08-24 01:57:29 Lung  NA        
##  8 HumanMelanoma… Homo sapiens  Vizgen      2024-08-24 01:57:29 Skin  NA        
##  9 HumanMelanoma… Homo sapiens  Vizgen      2024-08-24 01:57:29 Skin  NA        
## 10 HumanOvarianC… Homo sapiens  Vizgen      2024-08-24 01:57:29 Ovary NA        
## # ℹ 22 more rows
## # ℹ 14 more variables: pathology <chr>, platform <chr>, pub_citation <chr>,
## #   source <chr>, web_link <chr>, mean_counts <dbl>, median_counts <dbl>,
## #   modality_gene <lgl>, modality_metabolite <lgl>, modality_protein <lgl>,
## #   n_obs <int>, n_tissue_sections <int>, obs_unit <chr>, obj_size <lbstr_by>
…
