Initiation & Preprocessing Xenium • SPATA2
…
# identify outliers based on the results of identifyTissueOutline()
object <- identifySpatialOutliers(object)

## 14:21:04 Identifying spatial outliers.

## 14:21:04 Spatial outliers: 1149

# show the column
getCoordsDf(object, variables = "sp_outlier") %>% 
  dplyr::filter(sp_outlier == TRUE) %>% 
  select(barcodes, sample, sp_outlier, everything())

## # A tibble: 1,149 × 8
##    barcodes   sample              sp_outlier     x     y x_orig y_orig cell_area
##    <chr>      <chr>               <lgl>      <dbl> <dbl>  <dbl>  <dbl>    [um^2]
##  1 aaaadpbp-1 HumanLungCancerXen… TRUE        206. 1496.   206.  1496.      68.5
##  2 abfgiade-1 HumanLungCancerXen… TRUE        838. 3190.   838.  3190.      42.9
##  3 abfgkhjc-1 HumanLungCancerXen… TRUE        862. 3195.   862.  3195.     127. 
##  4 abfgplcb-1 HumanLungCancerXen… TRUE        855. 3184.   855.  3184.      81.5
##  5 abfhjncf-1 HumanLungCancerXen… TRUE        848. 3183.   848.  3183.      34.0
##  6 aeejbbkm-1 HumanLungCancerXen… TRUE        269. 3516.   269.  3516.      33.3
##  7 aeejcmej-1 HumanLungCancerXen… TRUE        268. 3508.   268.  3508.      72.0
##  8 aeekonea-1 HumanLungCancerXen… TRUE        644. 3565.   644.  3565.      63.9
##  9 aghomlfd-1 HumanLungCancerXen… TRUE       2829. 3391.  2829.  3391.      67.0
## 10 ajcieihi-1 HumanLungCancerXen… TRUE       2559. 3131.  2559.  3131.      79.0
## # ℹ 1,139 more rows
…
By default, the normalized matrix is activated and thus used in
downstream analysis. See ?activateMatrix for more
information. Furthermore, we compute metadata for the cells:
n_counts_{modality} with molecular modality gene
represents the number of individual transcript counts per cell, whereas
n_distinct_{modality} represents the number of distinct genes
identified by cell.

# some more meta features
object <- computeMetaFeatures(object)

getMetaDf(object)
## # A tibble: 160,910 × 7
##    barcodes   sample     sp_outlier tissue_section n_counts_gene n_distinct_gene
##    <chr>      <chr>      <lgl>      <fct>                  <dbl>           <int>
##  1 aaaaficg-1 HumanLung… FALSE      tissue_sectio…            19              15
##  2 aaabbaka-1 HumanLung… FALSE      tissue_sectio…            53              38
##  3 aaabbjoo-1 HumanLung… FALSE      tissue_sectio…            29              18
##  4 aaablchg-1 HumanLung… FALSE      tissue_sectio…            43              34
##  5 aaacaicl-1 HumanLung… FALSE      tissue_sectio…           135              62
##  6 aaacfcef-1 HumanLung… FALSE      tissue_sectio…            61              32
##  7 aaacgpjg-1 HumanLung… FALSE      tissue_sectio…            12               9
##  8 aaacjhpm-1 HumanLung… FALSE      tissue_sectio…            61              34
##  9 aaacjlia-1 HumanLung… FALSE      tissue_sectio…            77              42
## 10 aaadbiaa-1 HumanLung… FALSE      tissue_sectio…            64              31
## # ℹ 160,900 more rows
## # ℹ 1 more variable: avg_cpm_gene <dbl>
…
