Initiation & Preprocessing: Visium • SPATA2
…
That’s it. The object can be used for any downstream analyses such as
dimensional reduction, clustering, spatial annotation
screening or spatial
trajectory screening. Refer to tab Tutorials for more links.
Furthermore, you can skim our curated data base of spatial data sets for
those of platform VisiumSmall or VisiumLarge using SPATAData.

# load package
library(SPATAData)

# filter for samples from platform VisiumHD
sourceDataFrame(platform %in% c("VisiumSmall", "VisiumLarge"))

## # A tibble: 161 × 33
##    sample_name  comment donor_id donor_species grade histo_class histo_class_sub
##    <chr>        <chr>   <chr>    <chr>         <chr> <chr>       <chr>          
##  1 HumanBreast… NA      NA       Homo sapiens  NA    NA          NA             
##  2 HumanGliobl… NA      NA       Homo sapiens  IV    Glioblasto… NA             
##  3 HumanTonsil… NA      NA       Homo sapiens  NA    NA          NA             
##  4 HumanColore… NA      NA       Homo sapiens  NA    NA          NA             
##  5 HumanGliobl… NA      NA       Homo sapiens  NA    Glioblasto… NA             
##  6 HumanKidney… NA      NA       Homo sapiens  NA    NA          NA             
##  7 HumanLungCa… NA      NA       Homo sapiens  NA    NA          NA             
##  8 HumanOvaria… NA      NA       Homo sapiens  NA    NA          NA             
##  9 Breast_Canc… NA      NA       Homo sapiens  NA    NA          NA             
## 10 Breast_Canc… NA      NA       Homo sapiens  NA    NA          NA             
## # ℹ 151 more rows
## # ℹ 26 more variables: institution <chr>, lm_source <dttm>, organ <chr>,
## #   organ_part <chr>, organ_side <chr>, pathology <chr>, platform <chr>,
## #   pub_citation <chr>, pub_doi <chr>, pub_journal <chr>, pub_year <dbl>,
## #   sex <chr>, source <chr>, tags <chr>, tissue_age <dbl>, web_link <chr>,
## #   workgroup <chr>, mean_counts <dbl>, median_counts <dbl>,
## #   modality_gene <lgl>, modality_metabolite <lgl>, modality_protein <lgl>, …
…
