Newslog • SPATA2
…
# previously (now deprecated)
getFeatureDf(object)
## Warning in confuns::give_feedback(msg = msg, fdb.fn = fdb_fn, with.time =
## FALSE): Function `getFeatureDf()` is deprecated and will be deleted in the near
## future. Please use `getMetaDf()` instead.
## # A tibble: 3,517 × 128
##    barcodes         sample nCount_Spatial nFeature_Spatial percent.mt percent.RB
##    <chr>            <chr>           <dbl>            <int>      <dbl>      <dbl>
##  1 AAACAAGTATCTCCC… T313             4319             2164      2.17        6.54
##  2 AAACAATCTACTAGC… T313             6005             2796      2.10        8.46
##  3 AAACACCAATAACTG… T313              349              254      4.18        7.74
##  4 AAACAGAGCGACTCC… T313            11394             4248      2.85        8.63
##  5 AAACAGCTTTCAGAA… T313              902              616      1.72        6.33
##  6 AAACAGGGTCTATAT… T313              175              144      5.49        6.33
##  7 AAACATGGTGAGAGG… T313             8327             2958      0.870       8.11
##  8 AAACCCGAACGAAAT… T313             2940             1595      2.21        7.21
##  9 AAACCGGGTAGGTAC… T313               96               83      1.57       10.2 
## 10 AAACCGTTCGTCCAG… T313              671              394      1.99        8.18
## # ℹ 3,507 more rows
## # ℹ 122 more variables: Spatial_snn_res.0.8 <fct>, seurat_clusters <fct>,
## #   AC_like <dbl>, AC_like_Prolif <dbl>, MES_like_hypoxia_independent <dbl>,
## #   MES_like_hypoxia_MHC <dbl>, NPC_like_neural <dbl>, NPC_like_OPC <dbl>,
## #   NPC_like_Prolif <dbl>, OPC_like <dbl>, OPC_like_Prolif <dbl>, cDC1 <dbl>,
## #   cDC2 <dbl>, DC1 <dbl>, DC2 <dbl>, DC3 <dbl>, Mast <dbl>,
## #   Mono_anti_infl <dbl>, Mono_hypoxia <dbl>, Mono_naive <dbl>, pDC <dbl>, …

# now 
getMetaDf(object)
## # A tibble: 3,517 × 128
##    barcodes         sample nCount_Spatial nFeature_Spatial percent.mt percent.RB
##    <chr>            <chr>           <dbl>            <int>      <dbl>      <dbl>
##  1 AAACAAGTATCTCCC… T313             4319             2164      2.17        6.54
##  2 AAACAATCTACTAGC… T313             6005             2796      2.10        8.46
##  3 AAACACCAATAACTG… T313              349              254      4.18        7.74
##  4 AAACAGAGCGACTCC… T313            11394             4248      2.85        8.63
##  5 AAACAGCTTTCAGAA… T313              902              616      1.72        6.33
##  6 AAACAGGGTCTATAT… T313              175              144      5.49        6.33
##  7 AAACATGGTGAGAGG… T313             8327             2958      0.870       8.11
##  8 AAACCCGAACGAAAT… T313             2940             1595      2.21        7.21
##  9 AAACCGGGTAGGTAC… T313               96               83      1.57       10.2 
## 10 AAACCGTTCGTCCAG… T313              671              394      1.99        8.18
## # ℹ 3,507 more rows
## # ℹ 122 more variables: Spatial_snn_res.0.8 <fct>, seurat_clusters <fct>,
## #   AC_like <dbl>, AC_like_Prolif <dbl>, MES_like_hypoxia_independent <dbl>,
## #   MES_like_hypoxia_MHC <dbl>, NPC_like_neural <dbl>, NPC_like_OPC <dbl>,
## #   NPC_like_Prolif <dbl>, OPC_like <dbl>, OPC_like_Prolif <dbl>, cDC1 <dbl>,
## #   cDC2 <dbl>, DC1 <dbl>, DC2 <dbl>, DC3 <dbl>, Mast <dbl>,
## #   Mono_anti_infl <dbl>, Mono_hypoxia <dbl>, Mono_naive <dbl>, pDC <dbl>, …
…
