Spatial Transcriptomic Analysis • SPATA2
…
Spatial information refers to every barcode’s position on the histology image via x- and y-coordinates.

Dimensional reduction refers to the every barcode’s position on UMAPs, TSNEs etc.

Gene expression refers to the expression levels every barcode’s-spot features for a particular gene. (e.g. ‘SLC35E2A’, ‘NADK’, ‘GFAP’)

Gene set expression refers to the expression values every barcode’s-spot features for a particular gene set. (e.g. ‘HALLMARK_HYPOXIA’)

Feature information refers to every additional information that has been calculated or simply added. (e.g. cluster belonging, imaging data, …)

Speaking of variables in subsequent tutorials, we refer to the latter three if not otherwise explained. The example data.frame below contains variables of all six types.

(To learn how to extract these data.frames from your spata-object see Extract, join & add data.)

## # A tibble: 3,676 x 10
##    barcodes   sample     x     y seurat_clusters  GFAP SLC35E2A HM_HYPOXIA umap1
##    <chr>      <chr>  <dbl> <dbl> <fct>           <dbl>    <dbl>      <dbl> <dbl>
##  1 AAACAAGTA~ C265    444.  374. 2               0        0          0.346 -5.99
##  2 AAACACCAA~ C265    132.  434. 5               0.513    0          0.363 19.0 
##  3 AAACAGTGT~ C265    223.  525. 4               0.623    0          0.499 19.6 
##  4 AAACATTTC~ C265    425.  446. 2               0.162    0          0.358 -5.00
##  5 AAACCCGAA~ C265    492.  341. 0               0.221    0.223      0.340 -8.30
##  6 AAACCGGAA~ C265    527.  400. 0               0.217    0          0.364 -8.63
##  7 AAACCGGGT~ C265    166.  323. 5               0.521    0          0.264 19.1 
##  8 AAACCGTTC~ C265    218.  388. 4               0.611    0          0.422 19.2 
##  9 AAACCTAAG~ C265    373.  472. 1               0.204    0          0.297 -3.21
## 10 AAACCTCAT~ C265    132.  290. 5               0.212    0          0.369 17.0 
## # ... with 3,666 more rows, and 1 more variable: umap2 <dbl>
…
