Image Annotation Screening • SPATA2
…
# this is a wrapper around SPARK::sparkx()
object_t313 <- runSparkx(object = object_t313)

spark_df <- getSparkxGeneDf(object = object_t313, threshold_pval = 0.01)

# extract genes with a sparkx pvalue of 0.01 or lower
sparkx_genes <- spark_df[["genes"]]

# show results
spark_df

# show results (> 10 000 genes detected as spatially variable with a p-value of < 0.01)
str(sparkx_genes)

## # A tibble: 10,804 x 3
##    genes   combinedPval adjustedPval
##    <chr>          <dbl>        <dbl>
##  1 B2M        7.11e-275    1.46e-269
##  2 SERF2      1.97e-261    2.02e-256
##  3 HLA-B      1.18e-247    8.07e-243
##  4 ACTB       3.33e-243    1.71e-238
##  5 MYL6       8.77e-241    3.60e-236
##  6 UBC        4.00e-238    1.37e-233
##  7 ATP5F1E    1.03e-231    3.02e-227
##  8 ACTG1      7.41e-229    1.91e-224
##  9 H3F3A      2.66e-227    6.07e-223
## 10 S100A11    2.29e-226    4.71e-222
## # i 10,794 more rows
…
# subset results (right)
res_df_best <- 
  getResultsDf(
    object = IAS_T313,
    threshold_eval = 0.75,
    threshold_pval = 0.05, 
    best_only = TRUE # only best model fit
  ) %>% 
  head(200)

## # A tibble: 200 x 16
## # Groups:   models [1]
##    variables models        ias_score n_bins_angle corr_mean corr_median corr_min
##    <chr>     <chr>             <dbl>        <int>     <dbl>       <dbl>    <dbl>
##  1 IGFBP3    immediate_de~     0.907            1     0.927       0.927    0.927
##  2 TNC       immediate_de~     0.894            1     0.904       0.904    0.904
##  3 CD44      immediate_de~     0.886            1     0.934       0.934    0.934
##  4 THBS2     immediate_de~     0.879            1     0.887       0.887    0.887
##  5 GREM1     immediate_de~     0.878            1     0.979       0.979    0.979
##  6 P4HA2     immediate_de~     0.877            1     0.917       0.917    0.917
##  7 ARL4C     immediate_de~     0.876            1     0.918       0.918    0.918
##  8 CTSK      immediate_de~     0.874            1     0.849       0.849    0.849
##  9 MMP2      immediate_de~     0.873            1     0.869       0.869    0.869
## 10 LOXL2     immediate_de~     0.870            1     0.846       0.846    0.846
## # i 190 more rows
## # i 9 more variables: corr_max <dbl>, corr_sd <dbl>, raoc_mean <dbl>,
## #   p_value_mean <dbl>, p_value_median <dbl>, p_value_combined <dbl>,
## #   p_value_mean_adjusted <dbl>, p_value_median_adjusted <dbl>,
## #   p_value_combined_adjusted <dbl>

## # A tibble: 200 x 16
## # Groups:   models [2]
##    variables models        ias_score n_bins_angle corr_mean corr_median corr_min
##    <chr>     <chr>             <dbl>        <int>     <dbl>       <dbl>    <dbl>
##  1 IGFBP3    immediate_de~     0.907            1     0.927       0.927    0.927
##  2 TNC       immediate_de~     0.894            1     0.904       0.904    0.904
##  3 CD44      immediate_de~     0.886            1     0.934       0.934    0.934
##  4 THBS2     immediate_de~     0.879            1     0.887       0.887    0.887
##  5 GREM1     immediate_de~     0.878            1     0.979       0.979    0.979
##  6 P4HA2     immediate_de~     0.877            1     0.917       0.917    0.917
##  7 ARL4C     immediate_de~     0.876            1     0.918       0.918    0.918
##  8 CTSK      immediate_de~     0.874            1     0.849       0.849    0.849
##  9 MMP2      immediate_de~     0.873            1     0.869       0.869    0.869
## 10 LOXL2     immediate_de~     0.870            1     0.846       0.846    0.846
## # i 190 more rows
## # i 9 more variables: corr_max <dbl>, corr_sd <dbl>, raoc_mean <dbl>,
## #   p_value_mean <dbl>, p_value_median <dbl>, p_value_combined <dbl>,
## #   p_value_mean_adjusted <dbl>, p_value_median_adjusted <dbl>,
## #   p_value_combined_adjusted <dbl>
…
