Spatial Annotation Screening • SPATA2
…
Slot @results$model_fits contains the
model fitting results. It is a data.frame where each row corresponds to
a variable ~ model pair. The columns mae (mean absolute error)
and rmse (root mean squared error) indicate the quality of the
fit. The lower the value the better.

You can easily subset the results with dplyr verbs.

# e.g. filter output for gradients with a p-value less than 0.05
filter(sas_out@results$significance, p_value < 0.05)  

## # A tibble: 560 × 6
##    variables  rel_var tot_var p_value norm_var    fdr
##    <chr>        <dbl>   <dbl>   <dbl>    <dbl>  <dbl>
##  1 A2M          0.112    2.34  0.0091   0.117  0.0559
##  2 AC245595.1   1        2.33  0.0083   0.117  0.0513
##  3 ACTA2        0.516    2.13  0.0026   0.107  0.0235
##  4 ACTB         0.886    1.69  0        0.0846 0     
##  5 ACTG1       -0.569    1.82  0        0.0911 0     
##  6 ADAM12       0.361    2.50  0.0185   0.125  0.0852
##  7 ADD1        -0.426    2.32  0.0074   0.116  0.0474
##  8 ADM         -0.959    1.80  0        0.0898 0     
##  9 ADRM1        0.915    2.69  0.0361   0.135  0.125 
## 10 AKR1B1       1        2.26  0.0059   0.113  0.0418
## # ℹ 550 more rows

# e.g. filter model fits for best fit by variable
group_by(sas_out@results$model_fits, variables) %>% 
  slice_min(rmse, n = 1)

## # A tibble: 265 × 4
## # Groups:   variables [265]
##    variables models                mae   rmse
##    <chr>     <chr>               <dbl>  <dbl>
##  1 ACTA2     ascending_linear   0.236  0.266 
##  2 ACTB      ascending_linear   0.230  0.263 
##  3 ACTG1     peak_gradual       0.301  0.388 
##  4 ADD1      peak_gradual       0.290  0.353 
##  5 ADM       descending_gradual 0.0725 0.0970
##  6 AKR1B1    ascending_linear   0.153  0.206 
##  7 ANAPC11   ascending_linear   0.0976 0.123 
##  8 ANGPTL4   descending_linear  0.130  0.162 
##  9 APOC1     ascending_linear   0.102  0.131 
## 10 APOE      ascending_gradual  0.114  0.141 
## # ℹ 255 more rows

Alternatively, you can use getSgsResultsDf() and
getSgsResultsVec() which are convenient wrappers around
conditions with which to subset the results.

# the default: 
getSgsResultsDf(sas_out, pval = "fdr", threshold_pval = 0.05, eval = "mae", threshold_eval = 0.2)

## # A tibble: 207 × 9
## # Groups:   models [6]
##    variables models          mae   rmse rel_var tot_var p_value norm_var     fdr
##    <chr>     <chr>         <dbl>  <dbl>   <dbl>   <dbl>   <dbl>    <dbl>   <dbl>
##  1 CD74      ascending_l… 0.0550 0.0671   0.856    1.31  0        0.0655 0      
##  2 C1QB      ascending_l… 0.0570 0.0758   0.976    1.49  0        0.0743 0      
##  3 P4HA2     descending_… 0.0611 0.0782  -0.822    1.57  0        0.0783 0      
##  4 PSME2     ascending_l… 0.0627 0.0826   0.783    2.22  0.0041   0.111  0.0313 
##  5 FN1       descending_… 0.0653 0.0822  -0.910    1.77  0        0.0884 0      
##  6 NDUFA13   ascending_l… 0.0691 0.0883   1        1.77  0        0.0883 0      
##  7 THBS2     descending_… 0.0702 0.0919  -0.780    1.53  0        0.0763 0      
##  8 MFAP2     ascending_l… 0.0713 0.0853   0.994    1.30  0        0.0648 0      
##  9 ADM       descending_… 0.0725 0.0970  -0.959    1.80  0        0.0898 0      
## 10 IFITM3    ascending_l… 0.0727 0.105    0.720    1.92  0.0004   0.0962 0.00555
## # ℹ 197 more rows
…
