Dimensional Reduction • SPATA2
…
If you are working with spata data.frames you can use the functions joinWithPca(), joinWithTsne() and joinWithUmap() to add the embedding.

spata_df <- 
  getSpataDf(object = spata_obj)

with_gfap <- joinWith(object = spata_obj,
                      spata_df = spata_df,
                      genes = "GFAP")

# output 
with_gfap

## # A tibble: 3,734 x 3
##    barcodes           sample  GFAP
##    <chr>              <chr>  <dbl>
##  1 AAACAAGTATCTCCCA-1 T275   0.742
##  2 AAACACCAATAACTGC-1 T275   0.726
##  3 AAACAGAGCGACTCCT-1 T275   0.689
##  4 AAACAGCTTTCAGAAG-1 T275   0.854
##  5 AAACAGGGTCTATATT-1 T275   0.717
##  6 AAACAGTGTTCCTGGG-1 T275   0.742
##  7 AAACATTTCCCGGATT-1 T275   0.736
##  8 AAACCGGGTAGGTACC-1 T275   0.768
##  9 AAACCGTTCGTCCAGG-1 T275   0.880
## 10 AAACCTAAGCAGCCGG-1 T275   0.727
## # ... with 3,724 more rows

with_pca <- joinWithPca(object = spata_obj,
                        spata_df = with_gfap, 
                        n_pcs = 20)

# output 
with_pca

## # A tibble: 3,734 x 23
##    barcodes sample  GFAP     PC1    PC2   PC3    PC4    PC5    PC6    PC7    PC8
##    <chr>    <chr>  <dbl>   <dbl>  <dbl> <dbl>  <dbl>  <dbl>  <dbl>  <dbl>  <dbl>
##  1 AAACAAG~ T275   0.742  -2.70   0.392 -1.67  4.27  -0.639 -2.33  -0.659 -1.96 
##  2 AAACACC~ T275   0.726 -12.2    5.65   2.74 -4.77  -1.33   0.219 -1.50  -0.110
##  3 AAACAGA~ T275   0.689   5.65   1.11  -6.65 -0.751 -1.86   1.23   1.12   0.247
##  4 AAACAGC~ T275   0.854   1.27  -7.28   5.02 -0.449 -2.85  -3.06  -0.425 -0.154
##  5 AAACAGG~ T275   0.717  -8.40  -0.848  6.21 -4.15  -3.90  -0.555 -3.84  -1.71 
##  6 AAACAGT~ T275   0.742  -6.56   3.36  -1.50  0.555 -0.595  0.839  0.250  0.961
##  7 AAACATT~ T275   0.736  -5.35   3.12  -3.36  0.966 -0.364 -1.41  -0.404 -2.57 
##  8 AAACCGG~ T275   0.768   0.422 -7.06   5.36 -1.91  -4.24   1.77  -1.29   1.62 
##  9 AAACCGT~ T275   0.880  -5.54   0.946  1.65  0.889  2.90   1.69  -0.512 -1.61 
## 10 AAACCTA~ T275   0.727  -9.87   7.24  -1.96 -2.05   0.707 -1.22   0.589  2.30 
## # ... with 3,724 more rows, and 12 more variables: PC9 <dbl>, PC10 <dbl>,
## #   PC11 <dbl>, PC12 <dbl>, PC13 <dbl>, PC14 <dbl>, PC15 <dbl>, PC16 <dbl>,
## #   PC17 <dbl>, PC18 <dbl>, PC19 <dbl>, PC20 <dbl>
…
