SPATAData • SPATA2
…
To filter the source data.frame it takes logical tests that represent
your idea of the dataset you need. For instance, if you want all
glioblastoma samples from the frontal and temporal lobe the code would
look like this:

# filter for frontal and temporal glioblastoma
sourceDataFrame(histo_class == "Glioblastoma" & organ_part %in% c("frontal", "temporal"))

## # A tibble: 24 × 32
##    sample_name comment donor_id donor_species grade histo_class  institution    
##    <chr>       <chr>   <chr>    <chr>         <chr> <chr>        <chr>          
##  1 MGH258      NA      MGH258   Homo sapiens  IV    Glioblastoma Massachusetts …
##  2 ZH1019_inf  NA      ZH1007   Homo sapiens  IV    Glioblastoma University Hos…
##  3 ZH1019_T1   NA      ZH1007   Homo sapiens  IV    Glioblastoma University Hos…
##  4 ZH881_inf   NA      ZH881    Homo sapiens  IV    Glioblastoma University Hos…
##  5 ZH881_T1    NA      ZH881    Homo sapiens  IV    Glioblastoma University Hos…
##  6 ZH916_bulk  NA      ZH916    Homo sapiens  IV    Glioblastoma University Hos…
##  7 ZH916_inf   NA      ZH916    Homo sapiens  IV    Glioblastoma University Hos…
##  8 ZH916_T1    NA      ZH916    Homo sapiens  IV    Glioblastoma University Hos…
##  9 UKF242T     NA      UKF242   Homo sapiens  IV    Glioblastoma University Cli…
## 10 UKF243T     NA      UKF243   Homo sapiens  IV    Glioblastoma University Cli…
## # ℹ 14 more rows
## # ℹ 25 more variables: lm_source <dttm>, organ <chr>, organ_part <chr>,
## #   organ_side <chr>, pathology <chr>, platform <chr>, pub_citation <chr>,
## #   pub_doi <chr>, pub_journal <chr>, pub_year <dbl>, sex <chr>, source <chr>,
## #   tags <chr>, tissue_age <dbl>, web_link <chr>, workgroup <chr>,
## #   mean_counts <dbl>, median_counts <dbl>, modality_gene <lgl>,
## #   modality_metabolite <lgl>, modality_protein <lgl>, n_obs <int>, …

If you want samples from a specific publication:

# look for publications and journals with string subsetting
sourceDataFrame(str_detect(pub_citation, pattern = "^Kuppe"))

## # A tibble: 27 × 27
##    sample_name donor_id donor_species histo_class    histo_class_sub institution
##    <chr>       <chr>    <chr>         <chr>          <chr>           <chr>      
##  1 10X001      P1       Homo sapiens  Cardiac Muscle fibrotic_zone   University…
##  2 10X0017     P3       Homo sapiens  Cardiac Muscle ischaemic_zone  University…
##  3 10X0018     P2       Homo sapiens  Cardiac Muscle border_zone     University…
##  4 10X0020     P3       Homo sapiens  Cardiac Muscle remote_zone     University…
##  5 10X0025     P2       Homo sapiens  Cardiac Muscle ischaemic_zone  University…
##  6 10X0026     P3       Homo sapiens  Cardiac Muscle border_zone     University…
##  7 10X0027     P5       Homo sapiens  Cardiac Muscle fibrotic_zone   University…
##  8 10X009      P4       Homo sapiens  Cardiac Muscle control         University…
##  9 ACH0010     P13      Homo sapiens  Cardiac Muscle control         University…
## 10 ACH0011     P15      Homo sapiens  Cardiac Muscle border_zone     University…
## # ℹ 17 more rows
## # ℹ 21 more variables: lm_source <dttm>, organ <chr>, pathology <chr>,
## #   platform <chr>, pub_citation <chr>, pub_doi <chr>, pub_journal <chr>,
## #   pub_year <dbl>, source <chr>, tags <chr>, web_link <chr>, workgroup <chr>,
## #   mean_counts <dbl>, median_counts <dbl>, modality_gene <lgl>,
## #   modality_metabolite <lgl>, modality_protein <lgl>, n_obs <int>,
## #   n_tissue_sections <int>, obs_unit <chr>, obj_size <lbstr_by>

The number of conditions is unlimited. Make yourself familiar with
the variables of the source data.frame as well as with the
dplyr::filter() logic. You can even process the data.frame
to filter for specific queries. E.g. if you want patient wise matching
of samples.

# look for several samples from one single patient
sourceDataFrame(!is.na(donor_id) & organ == "Cerebrum") %>% 
  group_by(donor_id) %>% # count the Cerebrum samples by donor
  mutate(ns_by_donor = n()) %>% 
  filter(ns_by_donor > 1) %>% # keep only those samples with n > 1
  arrange(donor_id)

## # A tibble: 30 × 32
## # Groups:   donor_id [12]
##    sample_name donor_id donor_species grade histo_class  institution            
##    <chr>       <chr>    <chr>         <chr> <chr>        <chr>                  
##  1 UKF242C     UKF242   Homo sapiens  NA    Cortex       University Clinic Frei…
##  2 UKF242T     UKF242   Homo sapiens  IV    Glioblastoma University Clinic Frei…
##  3 UKF248C     UKF248   Homo sapiens  NA    Cortex       University Clinic Frei…
##  4 UKF248T     UKF248   Homo sapiens  IV    Glioblastoma University Clinic Frei…
##  5 UKF256C     UKF256   Homo sapiens  NA    Cortex       University Clinic Frei…
##  6 UKF256TC    UKF256   Homo sapiens  IV    Cortex       University Clinic Frei…
##  7 UKF256TI    UKF256   Homo sapiens  IV    Glioblastoma University Clinic Frei…
##  8 UKF259C     UKF259   Homo sapiens  NA    Cortex       University Clinic Frei…
##  9 UKF259T     UKF259   Homo sapiens  IV    Glioblastoma University Clinic Frei…
## 10 UKF260T     UKF260   Homo sapiens  IV    Glioblastoma University Clinic Frei…
## # ℹ 20 more rows
## # ℹ 26 more variables: lm_source <dttm>, organ <chr>, organ_part <chr>,
## #   organ_side <chr>, pathology <chr>, platform <chr>, pub_citation <chr>,
## #   pub_doi <chr>, pub_journal <chr>, pub_year <dbl>, sex <chr>, source <chr>,
## #   tags <chr>, tissue_age <dbl>, web_link <chr>, workgroup <chr>,
## #   mean_counts <dbl>, median_counts <dbl>, modality_gene <lgl>,
## #   modality_metabolite <lgl>, modality_protein <lgl>, n_obs <int>, …
…
