Single Cell Deconvolution • SPATA2
…
Fig.1 The injured mouse cortex sample clustered and with deconvolution
single cell data.

2. Single Cell input

Most function that integrate single cell deconvolution take the
single cell input via the argument sc_input. It expects a
data.frame that contains at least the columns x and y
as numeric pixel coordinates and a factor column called
cell_type.

sc_mci

## # A tibble: 4,356 x 7
##        x     y cell_type             spot_id              barcodes   x_mm y_mm
##    <dbl> <dbl> <fct>                 <chr>                <chr>      [mm] [mm]
##  1  442.  378. Neurons               AAACAAGTATCTCCCA-1_0 AAACAAGTA~ 5.83 4.98
##  2  412.  140. Mural cells           AAACAGAGCGACTCCT-1_0 AAACAGAGC~ 5.42 1.85
##  3  412.  137. Astrocytes            AAACAGAGCGACTCCT-1_1 AAACAGAGC~ 5.43 1.81
##  4  413.  142. Astrocytes            AAACAGAGCGACTCCT-1_2 AAACAGAGC~ 5.44 1.87
##  5  412.  138. Microglia             AAACAGAGCGACTCCT-1_3 AAACAGAGC~ 5.43 1.82
##  6  424.  447. Monocytes/Macrophages AAACATTTCCCGGATT-1_0 AAACATTTC~ 5.58 5.89
##  7  425.  452. Microglia             AAACATTTCCCGGATT-1_1 AAACATTTC~ 5.60 5.96
##  8  426.  450. Microglia             AAACATTTCCCGGATT-1_2 AAACATTTC~ 5.62 5.93
##  9  492.  341. OPCs                  AAACCCGAACGAAATC-1_0 AAACCCGAA~ 6.48 4.50
## 10  494.  346. OPCs                  AAACCCGAACGAAATC-1_1 AAACCCGAA~ 6.51 4.56
## # i 4,346 more rows

Further columns are optional. For this vignette the three mentioned
above suffice.

cell_types <- c("Astrocytes", "Monocytes/Macrophages", "Neurons", "Microglia")

sc_mci <- 
  filter(sc_mci, cell_type %in% {{cell_types}}) %>% 
  mutate(cell_type = droplevels(cell_type)) %>% 
  select(x, y, cell_type)

sc_mci

## # A tibble: 3,221 x 3
##        x     y cell_type            
##    <dbl> <dbl> <fct>                
##  1  442.  378. Neurons              
##  2  412.  137. Astrocytes           
##  3  413.  142. Astrocytes           
##  4  412.  138. Microglia            
##  5  424.  447. Monocytes/Macrophages
##  6  425.  452. Microglia            
##  7  426.  450. Microglia            
##  8  215.  391. Monocytes/Macrophages
##  9  215.  390. Astrocytes           
## 10  215.  393. Astrocytes           
## # i 3,211 more rows
…
