Image Annotations • SPATA2
…
Fig.12 Using tags to specify the image annotations of interest.

Further functions that might be of interest when it comes to
integrate histological structures in the analysis or code writing:

# extracts the polygon data.frames that contains the border 
getImgAnnOutlineDf(object = object_t275, tags = "vessel") %>% 
  dplyr::group_by(ids) %>% 
  dplyr::slice_sample(n = 6)

## # A tibble: 30 x 4
## # Groups:   ids [5]
##    ids       border     x     y
##    <fct>     <chr>  <dbl> <dbl>
##  1 img_ann_1 outer  1133. 1658.
##  2 img_ann_1 outer  1126. 1644.
##  3 img_ann_1 outer  1121. 1655.
##  4 img_ann_1 outer  1132. 1659.
##  5 img_ann_1 outer  1127. 1666.
##  6 img_ann_1 outer  1122. 1652.
##  7 img_ann_2 outer  1254. 1667.
##  8 img_ann_2 outer  1253. 1670.
##  9 img_ann_2 outer  1263. 1641.
## 10 img_ann_2 outer  1261. 1633.
## # i 20 more rows
…
