Spatial Segmentation • SPATA2
…
3. Data storage

Grouping variables in transcriptomic studies are often created by
cluster algorithms and are stored in form of factors in the meta
data.frame. As spatial segmentation variables are grouping variables,
too, they are stored there as well.

# show all grouping (factor) variables in the meta data.frame
getMetaDf(object_t269) %>%
  select(barcodes, where(is.factor))

## # A tibble: 3,213 × 6
##    barcodes           tissue_section   seurat_clusters histology  bayes_space
##    <chr>              <fct>            <fct>           <fct>      <fct>      
##  1 GTAGCGCTGTTGTAGT-1 tissue_section_1 1               tumor      2          
##  2 TTGTTTGTGTAAATTC-1 tissue_section_1 1               tumor      2          
##  3 CGTAGCGCCGACGTTG-1 tissue_section_1 2               tumor      2          
##  4 GTAGACAACCGATGAA-1 tissue_section_1 2               tumor      2          
##  5 ACAGATTAGGTTAGTG-1 tissue_section_1 9               tumor      2          
##  6 TGAGATCAAATACTCA-1 tissue_section_1 2               tumor      4          
##  7 CTGGTCCTAACTTGGC-1 tissue_section_1 9               tumor      4          
##  8 TGCACGAGTCGGCAGC-1 tissue_section_1 7               tumor      4          
##  9 ATAGTCTTTGACGTGC-1 tissue_section_1 9               transition 4          
## 10 GGGTGGTCCAGCCTGT-1 tissue_section_1 4               transition 4          
## # ℹ 3,203 more rows
## # ℹ 1 more variable: example_spat_segm <fct>

# obtain only names from variables created with spatial segmentation
spat_segm_vars <- getSpatSegmVarNames(object_t269)

spat_segm_vars

## [1] "histology"         "example_spat_segm"

# show only variables that have been created by spatial segmentation
getMetaDf(object_t269) %>% 
  select(barcodes, all_of(spat_segm_vars))

## # A tibble: 3,213 × 3
##    barcodes           histology  example_spat_segm
##    <chr>              <fct>      <fct>            
##  1 GTAGCGCTGTTGTAGT-1 tumor      unnamed          
##  2 TTGTTTGTGTAAATTC-1 tumor      unnamed          
##  3 CGTAGCGCCGACGTTG-1 tumor      unnamed          
##  4 GTAGACAACCGATGAA-1 tumor      unnamed          
##  5 ACAGATTAGGTTAGTG-1 tumor      unnamed          
##  6 TGAGATCAAATACTCA-1 tumor      unnamed          
##  7 CTGGTCCTAACTTGGC-1 tumor      unnamed          
##  8 TGCACGAGTCGGCAGC-1 tumor      unnamed          
##  9 ATAGTCTTTGACGTGC-1 transition unnamed          
## 10 GGGTGGTCCAGCCTGT-1 transition unnamed          
## # ℹ 3,203 more rows
…
