Differential Expression Analysis • SPATA2
…
## De-analysis has been performed on grouping variables:
## 
## - 'segmentation' with methods: wilcox
## - 'seurat_clusters' with methods: wilcox
## - 'Leiden_UMAP' with methods: wilcox' and 'bimod

3. Extracting results

There are two main functions with which you can manually extract the de-analysis results desired. First, getDeaResultsDf() returns the original resulting data.frame of Seurat::FindAllMarkers().

getDeaResultsDf(object = spata_obj, 
                across = "Leiden_UMAP", 
                method_de = "wilcox")

## # A tibble: 5,971 x 7
##        p_val avg_logFC pct.1 pct.2 p_val_adj Leiden_UMAP gene  
##        <dbl>     <dbl> <dbl> <dbl>     <dbl> <fct>       <chr> 
##  1 1.66e-  4     299.  0.151 0.105 1   e+  0 Cluster 1   NPY   
##  2 3.26e- 57     264.  0.3   0.093 7.03e- 53 Cluster 1   TAC1  
##  3 7.68e- 34      92.6 0.173 0.05  1.66e- 29 Cluster 1   SST   
##  4 2.84e- 17      79.6 1     0.999 6.12e- 13 Cluster 1   GFAP  
##  5 1.38e- 12      36.3 1     0.999 2.97e-  8 Cluster 1   S100A6
##  6 1.86e-195      28.4 0.964 0.761 4.02e-191 Cluster 1   UCHL1 
##  7 0              17.1 0.966 0.461 0         Cluster 1   SNAP25
##  8 1.99e- 49      16.5 0.927 0.845 4.28e- 45 Cluster 1   TUBB2A
##  9 5.72e- 14      15.7 0.993 0.982 1.23e-  9 Cluster 1   TUBA1B
## 10 3.98e- 23      15.6 0.988 0.967 8.57e- 19 Cluster 1   UBB   
## # ... with 5,961 more rows
…
slices the data.frame in order that for every unique cluster of the cluster-variable:

the n genes with the highest avg_logFC-values are kept where n = n_highest_lfc

the n genes with the lowest p_val_adj-values are kept where n = n_lowest_pval

arranges the genes according to the highest avg_logFC-values

getDeaResultsDf(object = spata_obj, 
                across = "Leiden_UMAP", 
                method_de = "wilcox", 
                max_adj_pval = 0.025, # of every cluster take genes with an adj. p-value of 0.025 or lower
                n_lowest_pval = 20) # from the remaining genes take only to 'top 20')

## # A tibble: 105 x 7
##        p_val avg_logFC pct.1 pct.2 p_val_adj Leiden_UMAP gene   
##        <dbl>     <dbl> <dbl> <dbl>     <dbl> <fct>       <chr>  
##  1 1.86e-195     28.4  0.964 0.761 4.02e-191 Cluster 1   UCHL1  
##  2 0             17.1  0.966 0.461 0         Cluster 1   SNAP25 
##  3 1.35e-263     15.0  0.805 0.229 2.91e-259 Cluster 1   SYT1   
##  4 1.88e-165     13.6  0.9   0.619 4.05e-161 Cluster 1   ENC1   
##  5 4.46e-267     12.2  0.809 0.232 9.61e-263 Cluster 1   VSNL1  
##  6 3.03e-187     11.7  0.877 0.458 6.54e-183 Cluster 1   OLFM1  
##  7 5.72e-182     11.6  0.552 0.112 1.23e-177 Cluster 1   HPCA   
##  8 2.35e-139     11.4  0.895 0.608 5.07e-135 Cluster 1   YWHAH  
##  9 6.61e-191     10.0  0.911 0.511 1.42e-186 Cluster 1   RTN1   
## 10 5.66e-219      9.74 0.715 0.196 1.22e-214 Cluster 1   SLC17A7
## # ... with 95 more rows
…
