Clustering • SPATA2
…
cluster_df <- 
  as.data.frame(kmeans_res[["cluster"]]) %>% 
  tibble::rownames_to_column(var = "barcodes") %>% 
  magrittr::set_colnames(value = c("barcodes", "kmeans_4_HW")) %>% 
  tibble::as_tibble()

cluster_df[["kmeans_4_HW"]] <- as.factor(cluster_df[["kmeans_4_HW"]])

cluster_df

## # A tibble: 3,734 x 2
##    barcodes           kmeans_4_HW
##    <chr>              <fct>      
##  1 AAACAAGTATCTCCCA-1 7          
##  2 AAACACCAATAACTGC-1 5          
##  3 AAACAGAGCGACTCCT-1 2          
##  4 AAACAGCTTTCAGAAG-1 4          
##  5 AAACAGGGTCTATATT-1 3          
##  6 AAACAGTGTTCCTGGG-1 3          
##  7 AAACATTTCCCGGATT-1 3          
##  8 AAACCGGGTAGGTACC-1 4          
##  9 AAACCGTTCGTCCAGG-1 3          
## 10 AAACCTAAGCAGCCGG-1 3          
## # i 3,724 more rows
…
