SPATA Terminology • SPATA2
…
3. Arguments

As every function accomplishes something unique every function has it’s own special arguments. Still, we attempted to create argument-families that usually refer to the same aspects.

1. SPATA-object

object takes your spata-object from which it gets all the information. It is the most frequent argument used and usually the first one of every function that needs it.

2. Data input

As SPATA2* draws it’s main power from the tidyverse data.frames are a vital part of the communication between functions and of the framework we attempt to provide. Whenever a function takes a data.frame as an input it will contain an argument of the df-family.

spata_df refers to data.frames that contain at least the variables barcodes and sample (obtained by e.g. getSpataDf()*).

## # A tibble: 3,734 x 2
##    barcodes           sample
##    <chr>              <chr> 
##  1 AAACAAGTATCTCCCA-1 T275  
##  2 AAACACCAATAACTGC-1 T275  
##  3 AAACAGAGCGACTCCT-1 T275  
##  4 AAACAGCTTTCAGAAG-1 T275  
##  5 AAACAGGGTCTATATT-1 T275  
##  6 AAACAGTGTTCCTGGG-1 T275  
##  7 AAACATTTCCCGGATT-1 T275  
##  8 AAACCGGGTAGGTACC-1 T275  
##  9 AAACCGTTCGTCCAGG-1 T275  
## 10 AAACCTAAGCAGCCGG-1 T275  
## # ... with 3,724 more rows

coords_df refers to coordinate data.frames which contain at least the variables barcodes, sample, x and y (obtained by e.g.getCoordsDf()*).

## # A tibble: 3,734 x 4
##    barcodes           sample     x     y
##    <chr>              <chr>  <dbl> <dbl>
##  1 AAACAAGTATCTCCCA-1 T275    435.  374.
##  2 AAACACCAATAACTGC-1 T275    132.  429.
##  3 AAACAGAGCGACTCCT-1 T275    407.  145.
##  4 AAACAGCTTTCAGAAG-1 T275     96   327 
##  5 AAACAGGGTCTATATT-1 T275    110.  353.
##  6 AAACAGTGTTCCTGGG-1 T275    219.  518.
##  7 AAACATTTCCCGGATT-1 T275    416.  443.
##  8 AAACCGGGTAGGTACC-1 T275    165.  321.
##  9 AAACCGTTCGTCCAGG-1 T275    216.  385.
## 10 AAACCTAAGCAGCCGG-1 T275    365.  468.
## # ... with 3,724 more rows

dea_df refers to differential expression data.frames which contain the results of differential gene expression analysis. (obtained by e.g. getDeaResultsDf()).

## # A tibble: 6,441 x 7
##       p_val avg_logFC pct.1 pct.2 p_val_adj seurat_clusters gene   
##       <dbl>     <dbl> <dbl> <dbl>     <dbl> <fct>           <chr>  
##  1 1.20e- 3      6.68 0.965 0.96   1   e+ 0 0               DPYSL2 
##  2 3.27e- 5      4.66 0.984 0.988  7.05e- 1 0               AQP4   
##  3 1.31e-40      3.57 0.909 0.8    2.82e-36 0               VOPP1  
##  4 2.01e- 9      3.44 0.842 0.883  4.34e- 5 0               PON2   
##  5 7.85e- 5      2.88 0.721 0.76   1   e+ 0 0               RHBDD2 
##  6 1.57e-33      2.75 0.86  0.931  3.38e-29 0               UBL5   
##  7 6.54e- 9      2.34 0.794 0.855  1.41e- 4 0               ARL6IP1
##  8 1.64e- 5      2.14 0.633 0.679  3.53e- 1 0               DDX17  
##  9 7.89e-10      2.14 0.862 0.773  1.70e- 5 0               MAOB   
## 10 4.84e- 7      2.03 0.509 0.588  1.04e- 2 0               PSMC5  
## # ... with 6,431 more rows

stdf refers to summarized trajectory data.frames which contain information about spatial trajectories drawn with createTrajectories() (obtained by e.g.getTrajectoryDf()).

## # A tibble: 45 x 5
##    trajectory_part trajectory_part_order trajectory_order variables values
##    <chr>                           <int>            <int> <chr>      <dbl>
##  1 Part 1                              1                1 GFAP       1    
##  2 Part 1                              2                2 GFAP       0.972
##  3 Part 1                              3                3 GFAP       0.997
##  4 Part 1                              4                4 GFAP       0.932
##  5 Part 1                              5                5 GFAP       0.923
##  6 Part 1                              6                6 GFAP       0.904
##  7 Part 1                              7                7 GFAP       0.908
##  8 Part 1                              8                8 GFAP       0.968
##  9 Part 1                              9                9 GFAP       0.969
## 10 Part 1                             10               10 GFAP       0.824
## # ... with 35 more rows
…
