Differential Expression Analysis (DEA) • SPATA2
…
3. Extracting results

There are two main functions with which you can manually extract the
DEA results desired. First, getDeaResultsDf() returns the
original resulting data.frame of Seurat::FindAllMarkers().
getDeaGenes() returns a vector of gene names.

# extract the complete data.frame
getDeaResultsDf(
  object = object_t275, 
  across = "snn", 
  method_de = "wilcox"
)

## # A tibble: 3,786 x 7
##        p_val avg_log2FC pct.1 pct.2 p_val_adj snn   gene  
##        <dbl>      <dbl> <dbl> <dbl>     <dbl> <fct> <chr> 
##  1 7.77e-182      1.27  0.799 0.277 1.67e-177 0     POSTN 
##  2 6.72e-221      1.22  1     0.982 1.44e-216 0     PTN   
##  3 1.89e-233      1.22  1     0.996 4.06e-229 0     CST3  
##  4 4.55e-180      1.18  0.95  0.583 9.75e-176 0     LANCL2
##  5 1.14e-151      0.997 0.925 0.553 2.44e-147 0     TTYH3 
##  6 1.68e-165      0.996 0.995 0.885 3.60e-161 0     HOPX  
##  7 2.08e-158      0.983 0.96  0.699 4.47e-154 0     METRN 
##  8 3.64e-177      0.980 0.995 0.9   7.80e-173 0     RAMP1 
##  9 5.41e-138      0.924 0.994 0.758 1.16e-133 0     RCAN1 
## 10 5.57e-157      0.885 0.997 0.751 1.19e-152 0     IGFBP2
## # i 3,776 more rows
…
# e.g. all upregulated genes
getDeaResultsDf(
  object = object_t275,
  across = "snn", 
  min_lfc = 0.1 # genes with lfc bigger than or equal to 0.1
)

## # A tibble: 1,953 x 7
##        p_val avg_log2FC pct.1 pct.2 p_val_adj snn   gene  
##        <dbl>      <dbl> <dbl> <dbl>     <dbl> <fct> <chr> 
##  1 7.77e-182      1.27  0.799 0.277 1.67e-177 0     POSTN 
##  2 6.72e-221      1.22  1     0.982 1.44e-216 0     PTN   
##  3 1.89e-233      1.22  1     0.996 4.06e-229 0     CST3  
##  4 4.55e-180      1.18  0.95  0.583 9.75e-176 0     LANCL2
##  5 1.14e-151      0.997 0.925 0.553 2.44e-147 0     TTYH3 
##  6 1.68e-165      0.996 0.995 0.885 3.60e-161 0     HOPX  
##  7 2.08e-158      0.983 0.96  0.699 4.47e-154 0     METRN 
##  8 3.64e-177      0.980 0.995 0.9   7.80e-173 0     RAMP1 
##  9 5.41e-138      0.924 0.994 0.758 1.16e-133 0     RCAN1 
## 10 5.57e-157      0.885 0.997 0.751 1.19e-152 0     IGFBP2
## # i 1,943 more rows
…
