Genes-, Gene-sets & Features • SPATA2
…
4.1 Obtain feature data

To obtain all feature information use
getFeatureDf().

getFeatureDf(object = object_t269)

## # A tibble: 3,213 x 6
##    barcodes     sample nCount_Spatial nFeature_Spatial seurat_clusters histology
##    <chr>        <chr>           <dbl>            <int> <fct>           <fct>    
##  1 AAACAAGTATC~ 269_T            2984             1760 2               infiltra~
##  2 AAACACCAATA~ 269_T           14812             5452 0               tumor    
##  3 AAACAGAGCGA~ 269_T            2393             1516 5               infiltra~
##  4 AAACATTTCCC~ 269_T            4870             2575 5               infiltra~
##  5 AAACCCGAACG~ 269_T            5731             2781 2               infiltra~
##  6 AAACCGGGTAG~ 269_T           19525             6066 7               tumor    
##  7 AAACCGTTCGT~ 269_T           11463             4523 0               tumor    
##  8 AAACCTAAGCA~ 269_T            9221             3966 1               infiltra~
##  9 AAACCTCATGA~ 269_T           12689             4782 7               tumor    
## 10 AAACGAGACGG~ 269_T            1168              889 1               infiltra~
## # i 3,203 more rows
…
