Gene Set Enrichment Analysis • SPATA2
…
3. Extracting results

The results can be manually extracted via the following functions.

getGseaResults() extracts a list of hypeR objects. getGseaResultsDf() extracts a data.frame that results from merging the data of all hypeR objects together.

getGseaDf(
  object = spata_obj, 
  across = "seurat_clusters",
  method_de = "wilcox", 
  n_gsets = 20 # extract top 20 most significant gene sets
) 

## # A tibble: 180 x 10
## # Groups:   seurat_clusters [9]
##    seurat_clusters label   pval   fdr signature geneset overlap background hits 
##    <fct>           <fct>  <dbl> <dbl>     <int>   <int>   <int>      <int> <chr>
##  1 0               BP.G~ 7.2e-6 0.048        20     138       4      21548 INMT~
##  2 0               BP.G~ 8.2e-6 0.048        20       5       2      21548 ARL6~
##  3 0               BP.G~ 2.3e-5 0.089        20       8       2      21548 ARL6~
##  4 0               BP.G~ 5.6e-5 0.16         20      81       3      21548 MAOB~
##  5 0               BP.G~ 7.4e-5 0.17         20      14       2      21548 ARL6~
##  6 0               BP.G~ 1.5e-4 0.3          20      20       2      21548 ARL6~
##  7 0               BP.G~ 2  e-4 0.33         20      23       2      21548 ARL6~
##  8 0               BP.G~ 2.6e-4 0.33         20      26       2      21548 ARL6~
##  9 0               BP.G~ 2.6e-4 0.33         20      26       2      21548 ARL6~
## 10 0               BP.G~ 2.8e-4 0.33         20     140       3      21548 ARL6~
## # ... with 170 more rows, and 1 more variable: overlap_perc <dbl>
…
