Segmentation & Clustering • SPATA2
…
If you need the barcodes of a segment’s barcode spots you can obtain them for example via getSegmentDf().

getSegmentDf(spata_obj, segment_names = "oxid-phosph-high")

## # A tibble: 632 x 5
##    barcodes           sample     x     y segmentation    
##    <chr>              <chr>  <dbl> <dbl> <chr>           
##  1 AAACACCAATAACTGC-1 T275   132.   429. oxid-phosph-high
##  2 AAACAGTGTTCCTGGG-1 T275   219.   518. oxid-phosph-high
##  3 AAACCGTTCGTCCAGG-1 T275   216.   385. oxid-phosph-high
##  4 AAACGAAGATGGAGTA-1 T275    77.2  422. oxid-phosph-high
##  5 AAACTTAATTGCACGC-1 T275   106.   460. oxid-phosph-high
##  6 AAAGGCCCTATAATAC-1 T275   142.   473. oxid-phosph-high
##  7 AAAGTAGCATTGCTCA-1 T275   161.   378. oxid-phosph-high
##  8 AAATCGCGGAAGGAGT-1 T275    80.9  416. oxid-phosph-high
##  9 AAATGGCCCGTGCCCT-1 T275   125.   365. oxid-phosph-high
## 10 AAATTGATAGTCCTTT-1 T275   176.   404. oxid-phosph-high
## # ... with 622 more rows
…
In transcriptomic analysis clustering divides barcode-spots into groups based on the similarity of their gene-expression profiles. There are several algorithms out there that can be used to divide your sample into subgroups. While initiateSpataObject_10X() integrates the clustering algorithm used by the Seurat-package there are actually many more. As the use of clustering is highly depending on the biological question it makes sense to use several approaches and algorithms. SPATA2 currently offers the functions findSeuratClusters(), findMonocleClusters() and findNearestNeighbourClusters() which are wrapper around widely used clustering algorithms. The workflow of all functions is equal: Run the algorithm, obtain the results in a data.frame and add the clustering variables of interest to your spata-object via addFeatures(). The following code chunk exemplifies that using findMonocleClusters().

The package monocle3 makes use of louvain- and leidenbase clustering with the cluster_cells()-function. This function takes several additional parameters that can be used to tweak the clustering-algorithm’s performance with respect to the properties of every individual sample. SPATA2’s findMonocleClusters() is a wrapper around monocle3’s clustering options. It iterates over the parameters you provide and returns a tidy spata data.frame containing each result as a separate variable.

monocle_clusters <- findMonocleClusters(object = spata_obj, 
                                        preprocess_method = "PCA", 
                                        reduction_method = c("UMAP", "PCA", "tSNE"), 
                                        cluster_method = c("leiden", "louvain"), 
                                        k = 5, 
                                        num_iter = 5)

# output
monocle_clusters

## # A tibble: 3,734 x 7
##    barcodes  cluster_leiden_~ cluster_louvain~ cluster_leiden_~ cluster_louvain~
##    <chr>     <chr>            <chr>            <chr>            <chr>           
##  1 AAACAAGT~ Cluster 1        Cluster 29       Cluster 1        Cluster 2       
##  2 AAACACCA~ Cluster 5        Cluster 43       Cluster 1        Cluster 6       
##  3 AAACAGAG~ Cluster 3        Cluster 16       Cluster 1        Cluster 1       
##  4 AAACAGCT~ Cluster 2        Cluster 27       Cluster 1        Cluster 5       
##  5 AAACAGGG~ Cluster 5        Cluster 37       Cluster 1        Cluster 3       
##  6 AAACAGTG~ Cluster 4        Cluster 14       Cluster 1        Cluster 2       
##  7 AAACATTT~ Cluster 4        Cluster 36       Cluster 1        Cluster 2       
##  8 AAACCGGG~ Cluster 2        Cluster 38       Cluster 1        Cluster 5       
##  9 AAACCGTT~ Cluster 1        Cluster 17       Cluster 1        Cluster 2       
## 10 AAACCTAA~ Cluster 4        Cluster 8        Cluster 1        Cluster 6       
## # ... with 3,724 more rows, and 2 more variables: cluster_leiden_tSNE_k5 <chr>,
## #   cluster_louvain_tSNE_k5 <chr>
…
