Surface Plotting • SPATA2
…
Figure 1.1. Basic surface plots

The data.frame below shows the underlying data.frame. Note that two different variables were used with respect to the color-aesthetic.

## # A tibble: 3,676 x 6
##    barcodes           sample     x     y seurat_clusters    CCK
##    <chr>              <chr>  <dbl> <dbl> <fct>            <dbl>
##  1 AAACAAGTATCTCCCA-1 C265    444.  374. 2               0.426 
##  2 AAACACCAATAACTGC-1 C265    132.  434. 5               0.243 
##  3 AAACAGTGTTCCTGGG-1 C265    223.  525. 4               0.169 
##  4 AAACATTTCCCGGATT-1 C265    425.  446. 2               0.333 
##  5 AAACCCGAACGAAATC-1 C265    492.  341. 0               0.367 
##  6 AAACCGGAAATGTTAA-1 C265    527.  400. 0               0.361 
##  7 AAACCGGGTAGGTACC-1 C265    166.  323. 5               0.111 
##  8 AAACCGTTCGTCCAGG-1 C265    218.  388. 4               0.0663
##  9 AAACCTAAGCAGCCGG-1 C265    373.  472. 1               0.385 
## 10 AAACCTCATGAAGTTG-1 C265    132.  290. 5               0.376 
## # ... with 3,666 more rows
…
