Spatial Segmentation • SPATA2
…
3. How spatial segmentation is stored

Grouping variables in transcriptomic studies are usually created by
cluster algorithms and are stored in form of factors in the feature
data.frame (or meta data.frame in case of Seurat objects).
As spatial segmentation is a grouping variable, too, it is stored there
as well.

getFeatureDf(object = object_t269) %>% 
  select(barcodes, where(is.factor))

## # A tibble: 3,213 x 3
##    barcodes           seurat_clusters histology  
##    <chr>              <fct>           <fct>      
##  1 AAACAAGTATCTCCCA-1 2               infiltrated
##  2 AAACACCAATAACTGC-1 0               tumor      
##  3 AAACAGAGCGACTCCT-1 5               infiltrated
##  4 AAACATTTCCCGGATT-1 5               infiltrated
##  5 AAACCCGAACGAAATC-1 2               infiltrated
##  6 AAACCGGGTAGGTACC-1 7               tumor      
##  7 AAACCGTTCGTCCAGG-1 0               tumor      
##  8 AAACCTAAGCAGCCGG-1 1               infiltrated
##  9 AAACCTCATGAAGTTG-1 7               tumor      
## 10 AAACGAGACGGTTGAT-1 1               infiltrated
## # i 3,203 more rows
…
