Using Spatial Annotations • SPATA2
…
4. Using external coordinate data.frames

You can relate spatial annotations to observations that do not live
in the SPATA2 object but in a separate data.frame. Only
requirements are that the data.frame contains x- and y- coordinates
scaled to the resolution of the active image (if there is one) and a
variable called barcodes identifying each observation
uniquely.

# get sc deconvolution data
sc_input <- example_data$sc_input_lmu_mci

sc_input

## # A tibble: 4,356 × 5
##    barcodes     x     y cell_type             spot_id           
##    <chr>    <dbl> <dbl> <fct>                 <chr>             
##  1 cell1     442.  378. Neurons               AAACAAGTATCTCCCA-1
##  2 cell2     412.  140. Mural cells           AAACAGAGCGACTCCT-1
##  3 cell3     412.  137. Astrocytes            AAACAGAGCGACTCCT-1
##  4 cell4     413.  142. Astrocytes            AAACAGAGCGACTCCT-1
##  5 cell5     412.  138. Microglia             AAACAGAGCGACTCCT-1
##  6 cell6     424.  447. Monocytes/Macrophages AAACATTTCCCGGATT-1
##  7 cell7     425.  452. Microglia             AAACATTTCCCGGATT-1
##  8 cell8     426.  450. Microglia             AAACATTTCCCGGATT-1
##  9 cell9     492.  341. OPCs                  AAACCCGAACGAAATC-1
## 10 cell10    494.  346. OPCs                  AAACCCGAACGAAATC-1
## # ℹ 4,346 more rows
…
# relate to spatial annotations ...
sc_input_sa <- 
  getCoordsDfSA(
    object = object_mouse,
    ids = c("inj1", "inj2"),
    resolution = "300um", 
    coords_df = sc_input
    ) %>% 
  filter(rel_loc != "core")

# ... which adds the spatial information to the data.frame
sc_input_sa

## # A tibble: 4,092 × 15
##    barcodes     x     y tissue_section_id cell_type spot_id tissue_section  dist
##    <chr>    <dbl> <dbl> <chr>             <fct>     <chr>   <chr>          <dbl>
##  1 cell1     442.  378. tissue_section_2  Neurons   AAACAA… tissue_sectio… 0.502
##  2 cell10    494.  346. tissue_section_2  OPCs      AAACCC… tissue_sectio… 1.18 
##  3 cell100   408.  375. tissue_section_2  Oligos    AACGGA… tissue_sectio… 0.659
##  4 cell1000  370.  171. tissue_section_1  Monocyte… ATGCCG… tissue_sectio… 0.366
##  5 cell1001  371.  175. tissue_section_1  Oligos    ATGCCG… tissue_sectio… 0.415
##  6 cell1002  344.  442. tissue_section_2  Neurons   ATGCTC… tissue_sectio… 1.14 
##  7 cell1003  345.  441. tissue_section_2  Monocyte… ATGCTC… tissue_sectio… 1.13 
##  8 cell1004  346.  445. tissue_section_2  Astrocyt… ATGCTC… tissue_sectio… 1.11 
##  9 cell1005  347.  441. tissue_section_2  Astrocyt… ATGCTC… tissue_sectio… 1.10 
## 10 cell1006  481.  419. tissue_section_2  OPCs      ATGCTT… tissue_sectio… 0.567
## # ℹ 4,082 more rows
## # ℹ 7 more variables: border <chr>, dist_unit <chr>, bins_dist <fct>,
## #   rel_loc <fct>, angle <dbl>, bins_angle <fct>, id <fct>
…
